M48
; DRILL file {KiCad 7.0.2+dfsg-1} date Mon 01 May 2023 02:47:20 AM PDT
; FORMAT={-:-/ absolute / inch / decimal}
; #@! TF.CreationDate,2023-05-01T02:47:20-07:00
; #@! TF.GenerationSoftware,Kicad,Pcbnew,7.0.2+dfsg-1
; #@! TF.FileFunction,NonPlated,1,2,NPTH
FMAT,2
INCH
%
G90
G05
T0
M30
